,page_num
6,1
7,2
8,2
9,1
10,1
11,5
12,3
13,4
14,2
15,6
17,6
18,4
19,5
20,1
21,2
22,26
23,1
24,7
25,5
26,9
27,6
28,5
29,2
30,6
31,11
32,12
33,2
34,1
35,10
36,5
37,6
38,3
39,14
40,16
41,5
42,9
43,5
44,5
45,7
46,8
47,15
48,15
49,6
50,1
